0,"I went with grandchildren to butterfly display at Crohn Conservatory
"
1,YESTERDAY MY MOMS BIRTHDAY SO I ENJOYED
2,I came in 3rd place in my Call of Duty video game.
3,Managed to get the final trophy in a game I was playing. 
4,The cake I made today came out amazing. It tasted amazing as well.
5,Going to the mountains and hiking the trail to the top.
6,I bought a new TV
7,"Everyone works at his own pace, so why compare yourself to others? If you think you're better than someone else, you gain an unhealthy sense of superiority. If you think someone else is better than you, you end up feeling bad about yourself. Youall be happier if you focus on your own progress and praise others on theirs."
8,We celebrated our anniversary with my boyfriend.
9,We booked our beach vacation for May of this year.
10,I got travel visa as a tourist for 3 months to Australia
11,i read a great book about motivation and attitude
12,gathering with old friends from school
13,My wife and i are celebrating our ten year anniversary today.
14,GO TO HOTEL PARTY OF MY MOMS BIRTHDAY
15,I finally decorated my son's room for his birthday.
16,I celebrated my 7th wedding anniversary with my wife.
17,IN MY GARDEN I PLANTED A ROSE PLANT LAST MONTH.YESTERDAY  MORNING A BEAUTIFUL AND COLORFUL ROSE FLOURISHED.IT MADE ME HAPPY.
18,FRIEND GIFTED ME A RING FOR MY PAPER SELECTED FOR NATIONAL CONFERENCE
19,We went movie at 9:30 its Telugu movie my favourite hero new movie released its awesome movie
20,I won a puzzle game on a website which requires fast reflexes.
21,I celebrated my birthday with my friends.
22,Today afternoon 2.00 p.m  my husband suddenly planned for vacation tour . He booked the ticket for whole trip . I didn't expect  this from my husband .
23,I level up in games
24,I watched a series of movies. 
25,I got an offer to help a photographer friend to shoot the Cubs' season opener game.
26,I won a basketball medal with my team and I was leader and mvp of the match
27,"My friends thrown a surprise party for my promotion yesterday, so happy."
28,Sitting outside drinking a cup of tea in the sunshine surrounded by my recently bloomed tulips. 
29,Playing cricket with friends
30,I watched my kids playing together and not fighting.
31,GO TO THEATRE AND MAKE HAPPY WITH MY FAMILY
32,A good win for my sports team
33,I beat the final boss in Dark Souls.
34,My cat has been sick and yesterday she ate some food and scampered around the apartment.
35,I went to the park
36,I was able to play my favorite game for 3 hours. 
37,India won the  cricket test match against Australia today
38,"Due to cooler weather this afternoon, I finally managed to prune the trees in the garden"
39,When I got the wanted seats in the cinema. It made watching a movie experience a whole lot better.
40,I enjoyed doing my meditation at shaolin temple nearby.
41,I got to book my movie ticket
42,I got wet by a spring rain.
43,Watching a new episode of a favorite television show.
44,We watched some Always Sunny in Philadelphia and that show always makes me laugh and happy.
45,I was able to walk my dog around our neighborhood. It was fun to see what flowers people are planting.
46,I received a birthday gift in the mail from a good friend of mine. 
47,Last night my favorite hockey team won and played really well after playing a bad game the other night. 
48,My basketball team won the game in the last few seconds
49,I went out with friends to have drinks at a bar.
50,"It was adapted into a stage musical in 2008, with film/theater actor Oh Man-seok debuting as director. Oh was also the lyricist and polished the script. The story centers around two guys who are crazy about music. One is a high school music teacher, Beom-jin, who has broken up with his girlfriend and now eats sadly alone in front of his mirror out of habit. Another is the younger Sae-ki, whose mother left and whose father died in a sudden accident, leaving him an orphan. In this rather dull world, the only thing that makes these two feel alive is music, offering them their ""happy life"". Yoo Jun-sang and Im Choon-gil alternated as Beom-jin, and Kim Mu-yeol and Ryan alternated as Sae-ki."
51,I went to watch a soccer match at the stadium. Had fun cheering up for my team
52,My favorite hockey team winning yesterday.
53,Watching Bob's Burgers streaming on Fox.
54,"I got to relax and spend time with my girlfriend, and not worry about anything else."
55,"Did well in the videogame I was playing
"
56,It's my son's eighth birthday in four days. I had fun going through his baby pictures and old birthday photos. 
57,I had been out to a beautiful garden
58,I went on a short day hike at the wilderness park.
59,"Today is my son's birthday, and he was so excited to open his gifts from us!"
60,I won a long match of an online card game called Hearthstone.
61,Daughter was just blurting out happy birthday and it happened to be my wife's birthday who passed away in April
62,I made the final table of a poker tournament.
63,I helped plan a surprise party for my Mom's 70th birthday party coming up. 
64,I finished making a mega cake for a friend's birthday and it came out great!
65,"Today is my dog's birthday, and we had fun playing with his present."
66,I watched a Blackhawks game last night.
67,We were accepted for a new apartment.
68,I booked a flight to Colombia.
69,I got to meet with some old friends to celebrate one of their birthdays.
70,It was my 25th birthday!
71,I ate chik-fil-a
72,My boyfriend gave me flowers.
73,"I went to a hockey game with 3 close friends.

"
74,"I got the ""play of the game"" in the video game Overwatch."
75,The New York Knicks actually played well and won a game.
76,I went on a birthday date with my significant other
77,i watched Spain playing football
78,"*Listening to some oldies but goodies music on the radio, it brought back some old good memories.  
"
79,I booked a flight to Stockholm.
80,Shooting guns.
81,I was able to till up my garden area.
82,I was able to watch The Walking Dead tv show.
83,I found my favorite beer at a local store.
84,I was reading in my hammock.
85,"I enjoyed tending to my garden, getting my hands dirty and spending time watering and taking care of my vegetable garden.
"
86,I found a new playlist of 80s hip hop songs.
87,My friends birthday was today. We went to applebee's.
88,I cleaned my room and tidied up all the mess. 
89,Watching a movie with my three children to end the day.
90,I got to take a nap on the couch.
91,"""Feeling a Moment"" is a song by Welsh rock band Feeder, from their 2005 album Pushing the Senses. It was released as the second single from the album, and reached #13 in the UK Singles Chart and #32 in Australia. At the end of 2005, it was voted 98th best song of the year by the readers of Q Magazine"
92,Getting MVP in a difficult online multiplayer game. 
93,The sun finally coming out after days of rain.
94,Me and the dog went for a long jog at the park.
95,I sold something I didn't need anymore on Craigslist for 90 dollars.
96,Saw the last ep of Billions.
97,Going for a long cycling ride and enjoying today's sunny weather.
98,"Watching a soap opera of a wrestler, Blue Demon."
99,"It was adapted into a stage musical in 2008, with film/theater actor Oh Man-seok debuting as director. Oh was also the lyricist and polished the script. The story centers around two guys who are crazy about music. One is a high school music teacher, Beom-jin, who has broken up with his girlfriend and now eats sadly alone in front of his mirror out of habit. Another is the younger Sae-ki, whose mother left and whose father died in a sudden accident, leaving him an orphan. In this rather dull world, the only thing that makes these two feel alive is music, offering them their ""happy life"". Yoo Jun-sang and Im Choon-gil alternated as Beom-jin, and Kim Mu-yeol and Ryan alternated as Sae-ki."
100,I Had fun playing an older video game
101,I won $20 on a fanduel nba fantasy basketball tournament lineup contest.
102,My dad thanked me for helping him fix a water fountain in our backyard.
103,I saw a huge toad or frog in my backyard. 
104,I made some watermelon-flavored jello and was reminded of my love for watermelon Jolly Ranchers.
105,The team I coach won its match today.
106,My sister made us amazing dinner!
107,"MY LOVE SUCCESS
THEN I MEET MY PARTNER
MY BUSINESS WAS VERY SUCCESS
MY LOVER BIRTHDAY
CELEBRATION IN PARTY

 "
108,I got to play a new computer game.
109,I listened to really good music. 
110,I played a video game.
111,Riding 4 wheelers. 
112,I decided to play a video game with a friend online; I had a lot of fun and that made me really happy.
113,I finished a good book 
114,Performing well at an online game and helping my team win.
115,I got a new apartment yesterday.
116,I finished Start Trek Deep Space Nine.
117,I got to watch 2 nba basketball games after dinner and actually relaxed. 
118,I watched a movie I really enjoyed.
119,I ate my breakfast on my back porch. I loved the warm sun.
120,I finalized some plans for a trip to Ireland this week. 
121,"I listened to the latest album from a favorite musician, Kristin Hersh."
122,I went for a run around the block.
123,"On my walk back from the post office this afternoon, I stopped under my favorite magnolia tree and soaked in her beauty as she starts to bloom."
124,I saw a pretty woman.
125,Spending time and playing with my dogs out at the park.
126,seeing the comments wishing my wife a happy birthday
127,i went to the gym 
128,i am very happy in watching movie and playing games
129,playing a game of Magic with my daughter
130,I watched a really good movie last night.
131,A filmmaker I'm working with was pleased with the script I wrote him.
132,completed all the reservations for my summer vacation. 
133,i buy new shoes today.
134,I came home to a clean house that my husband cleaned for me.
135,"I GOT ENGAGEMENT
MY LIFE PARTNER IN MY FAVORITE GIFT  GIVE THEM
MY FAMILY GOING TO TEMPLE
POOJA CELEBRATING 
MY MARRIAGE
 DATE WAS FIXED  
I HAVE LOT OF HAPPY MOMENT "
136,I finished a presentation
137,"I played a board game with my husband at home, it was a funny game - Exploding Kittens."
138,I listened to music I liked.
139,"The episode of ""Bates Motel""has a surprising twist on the classic story."
140,I watched a movie that was really good.
141,A book I wanted to buy went on sale for Amazon and I bought it.
142,I played the guitar.
143,A moment that made me happy was playing a game of basketball with friends
144,My partner and I decided to go on an around the world trip next year.
145,my mom's birthday celebration and wedding celebration and my dad birthday celebration i enjoyed the past month
146,Buying air flights for my vacation in May.
147,I was at church participating in corporate worship and the lyrics to a new song reminded me of one of the beautiful attributes of God.
148,tour with friends to outstation 
149,I went on a fun weekend trip.
150,"The weather was warm, and I went running for the first time in several months. "
151,I watched the movie Logan.
152,I had a photo published in a major publication.
153,Friends visiting and spending time over the weekend
154,I straighten my curly hair and colored.
155,I celebrate My 24th birthday
156,I got to eat cake on my son's birthday after abstaining from sugar for a month. It was delightfully exciting.
157,"I introduced my daughter to the video game ""Super Meat Boy"" and we had so much fun playing and laughing together."
158,I went on vacation for a whole week. 
159,We have conducting the party of my mothers birthday the in last month the party was very enjoyable movement on the day me and my family members enjoyed lots and lots in an parties
160,I qualified in the inter collegiate tennis tournament as a university player which was held at bangalore.
161,It's my friends birthday and we celebrated at lunch.
162,Past month I booked my ticket in advance for Spain n i am so happy to go in few days to Spain 
163,Someone bought a piece of art from me.
164,Buying a new PS4.
165,"MY HAPPINESS MOMENTS IN MY BROTHER BIRTHDAY FUNCTION.BECAUSE  A HAPPINESS MOMENTS FOR MY LIFE .
"
166,"Lying in the bed listening to the rain outside. 
Listening to old songs and being able to remember all the lyrics."
167,Lying the bed listening to the rain outside Listening to old songs and being able to remember all the lyrics
168,"Lying in the bed listening to the rain outside.
Listening to old songs and being able to remember all the lyrics."
169,Lying in the bed listening to the rain outside. Listening to old songs and being able to remember all the lyrics.
170,Lying in the bed listening to the rain outside. Listening to old songs and being able to remember all the lyrics.
171,"Lyling in the bed listening to the rain outside.
Listening to old songs and being able to member all the lyrics."
172,Our garden gave us brinjals which we made into curry. We loved it.
173,"Lyling in the bed listening to the rain outside.
Listening to old songs and being able to member all the lyrics."
174,"Lying in the bed listening to the rain out side.
Listening to old songs and being able to remember all the lyrics."
175,The Golden State Warriors beat the Oklahoma City Thunder mighty handily.
176,"It was my 10th wedding anniversary last month, the special gift from my hubby was a silk saree and a diamond earring."
177,I adopted a cat.
178,Lying in the bed listening to the rain outside. Listening to old songs and being able to member all the lyrics.
179,"Celebrating my dad & stepmother's 2nd anniversary, thinking back to their wedding day."
180,Went downstairs and cuddled with my cat on the couch watching TV.
181,This past month my family and I went on a week long cruise. 
182,Went on a weekend trip with some friends.
183,my hubby give a surprise gift for our anniversary
184,SPENDING DAY WITH FRIENDS
185,i went to meet my home town last week
186,i received a gift from my friend on  my birthday 
187,I played a really great tennis game.
188,"This past month, I celebrated my 31st birthday and had a wonderful party to celebrate with friends and family."
189,Last week we celebrated our little girl's birthday and spent some time together with family members at our religious place.
190,We went cross country skiing.
191,"When my son made straight excellent and A's on his report card, being slightly Autistic a great accomplishment."
192,My son's family birthday party last Saturday made me happy. 
193,I went to my sister's house to celebrate my birthday. It was a very happy moment
194,My favorite soccer team win a competition
195,When I watched Dave Chapelle's new comedy series.
196,This past month I received a promotion and a raise.
197,I got to spend a kid-free afternoon to do whatever I wanted to do.
198,"I went on a mini vacation to Vail, Colorado."
199,I got a chance to work for great day on a movie filming in my town starring 2 of my favorite actors. 
200,I made a vacation reservation to celebrate my child's birthday at Disney World.
201,My son played his first baseball game this month. 
202,"When I met a girl who I feel very connected to in February. We connect mentally, emotionally, and spiritually. We share a lot of interests, a love for art and very similar taste in music and humor. "
203,Meeting an attractive girl on the dance floor of a disco during a spring break trip to the Dominican Republic. 
204,I went to a large anime convention for a vacation.
205,Today I got approved for Visa for UK
206,Some time spent petting and cuddling with my purring cat. 
207,"My significant other took me out for a romantic birthday dinner. It was a good day, a wonderful evening, and the glow lasted several days.
."
208,we attended the Nationals
209,Throwing a surprise birthday party for my brother.
210,I finished collecting sample parts to discuss during a customer visit next week.
211,My beautiful wife and I celebrate are wedding anniversary. 
212,Watching my daughter perform at the choral arts festival.
213,I went to native to visit my parents
214,I reached a goal in a video game that I was playing.
215,My son was able to have some friends over for a birthday party.
216,I got a perfect score on a college exam. 
217,My daughter's first birthday party went really well.
218,On tuesday I got a surprise birthday present.
219,"I read a wonderful book called Clothes, Clothes, Clothes...I love the book and I admire the woman who wrote it. I was happy to read the book and learn about this extraordinary musician."
220,When I watched the movie John Wick: Chapter 2.
221,"Literally, stopping to smell a beautiful rose while walking my dogs."
222,It  was my daughter's Grand Marriage with  Beautiful Amenities and Quality food
223,when my friends came over to celebrate my 30th birthday
224,Mu son had a birthday arty.He is a 3 years old and give me the all happiness of the world
225,What made me happy was going to the movies and seeing Beauty and the Beast.
226,"go to hotel,park,beach,cinema so enjoyed in the birthday celebration"
227,I went to a friends birthday party. I have known them for almost ten years and it is always fun to see them under such fun circumstances as a birthday.
228,I got a haircut that made me look 10 years younger.
229,My sports team won in overtime.
230,My husband surprising me with flowers.
231,I made employee of the month and received a gift card.
232,i was able to win a tennis tournament
233,"I always think of each night as a song. Or each moment as a song. But now I'm seeing we don't live in a single song. We move from song to song, from lyric to lyric, from chord to chord. I like pingami movie song."
234,I received flowers from my partner today.
235,I planted a spring vegetable garden.
236,I won a really tough game of DOTA after being behind for most of the time.
237,Another thing that made me happy this past month was celebrating my birthday as well as a friends birthday on the same day.
238,Watching a damn good foreign language movie which depicts pure life. I watched it twice which is incredibly un usual.
239,"I went out to see the movie, Beauty and the Beast with some friends."
240,I see a special very funny animal video.
241,My husband and me fighting we are not celebrating my birthday 
242,I planted some plants in my garden.  My plants were grown in a healthy way with flowers.  I am so excited.  
243,Watching the movie Pursuit of Happiness.
244,My vacation was approved for the summer.
245,I built a pool in my garden
246,I went on vacation in Rome
247,MY SON DRAWING MY PHOTOS IN OUR NOTE BOOK
248,I finished writing my music album.
249,I took a trip up to Boston.
250,My wife and I booked our summer vacation 2 weeks ago to Disney World!
251,We were able to sit outside in our new patio furniture. 
252,Found a copy of an old rare movie I'd been looking for.
253,"Finally, bought the new LED TV"
254,I was happy to go to Disneyland for my best friend's birthday.
255,"Visited with friends whom were celebrating their wedding anniversary, we brought them a nice a bottle of wine to enjoy. "
256,i brought a new pet last week
257,Learning how to make paintings and become a artist. 
258,Celebrating my dads 84th birthday.
259,Caught up on my favorite show (Bates Motel).
260,I went to dinner to celebrate my wedding anniversary.
261,I sold a comic book on ebay.
262,I went to see a movie with a friend who was in town whom I hadn't seen in over a year.
263,UCLA bead Kent State in the first round of march madness.
264,i buy a 4k tv 
265,We celebrated my youngest son's birthday.
266,"In the past month, I made the final arrangements for a Bridal Shower."
267,I got a better rank in the video game I play.
268,Last month we celebrated our 10th anniversary.
269,Last month our family members celebrates my son's birthday.
270,Planning a surprise party for my husband for his birthday. 
271,"Sharing ideas to make your own Happiness Jar and photos of Happiness Jars. ... Write down something that made you happy every day for a year,"
272,"I felt very happy this month doing the activities that I love to do, like acrobatics, yoga and pilates. I love to stay active and it is a very happy feeling to work hard and it makes my body feel great. "
273,My husband brought me flowers for no reason.
274,"It was adapted into a stage musical in 2008, with film/theater actor Oh Man-seok debuting as director. Oh was also the lyricist and polished the script. The story centers around two guys who are crazy about music. One is a high school music teacher, Beom-jin, who has broken up with his girlfriend and now eats sadly alone in front of his mirror out of habit."
275,I was happy seven days ago when I celebrated my youngest son tenth birthday and my oldest son 21 birthday.
276,My son ceremony its very grand party held in reception hall all my relatives gathered and celebrated very well
277,When I completed a dungeon level in a video game I was playing.
278,"Listening to Charlie Parker play the song, ""Wah-Hoo"" the other day, reminded me yet again why I love music so much."
279,I booked my flight for a Hawaii trip.
280,I finished a computer game I'd been playing for a week.
281,"As a big sports fan, I enjoyed watching my team win during the first round of the NCAA Men's basketball tournament."
282,I had a good time watching a movie.
283,"The trees broke bud and flowers are starting to bloom, meaning that spring is here."
284,I successfully learned how to hover in a helicopter. 
285,"My oldest son, after having a rough first few games in his first competitive baseball season, was one of two players on his team to score and he put the ball in play both times he was up to bat."
286,"When my girlfriend told me that we had vacation plans for this summer, and we booked a cabin for a week."
287,I got a new game I got to play. 
288,I planted some vegetables in my grandfather's garden.
289,Watching a new anime that I enjoyed
290,i love to travel to countries in the last few years but i got a chance to travel places in last month
291,I GOT A SURPRISE GIFT FROM MY EX-LOVER
292,The Greek men's soccer team almost beat Belgium in a World Cup qualifying match.
293,going to beach 
294,I buy a new plant
295,I was happy to celebrate the 1st birthday of my friend's son.
296,I watched a movie that I thoroughly enjoyed.
297,I enjoyed shopping for my son's birthday.
298,My team win the cricket match.
299,watching a hockey game and seeing my team win it in overtime.
300,My tomato plants sprouting made me happy.
301,I made many shots in an outdoor 5-on-5 basketball game.
302,Shopping for a new TV and decided on a 55 inch 4K smart TV.
303,Watching my favorite NBA basketball team win.
304,I planted a bunch of veggie and herb seeds a week ago and they are sprouting like crazy!
305,i am very happy in family tour and watching movie playing game
306,"When I received a bouquet of flowers, unexpectedly, from my husband."
307,Helped the neighborhood kids to learn swimming in our backyard pond. 
308,I make one short film near my home town about natural photography.
309,"I saw the film ""Zootopia."""
310,Past month my cousin got a visa for US and I'm going to fly along with her to US as I already have a visa for US for vacation 
311,We started planning our wedding.
312,Last month My sister-in-law birthday celebration unforgettable moments.
313,Earning 15 dollar in one sitting at mturk
314,MY HAPPINESS MOMENT FOR LIFE IN MY TYPE WRITING EXAM IN DISTINCTION .SO HAPPY MOMENT FOR LIFE.
315,"LAST MONTH I AM GOING TO EGO PARK WITH MY FAMILY, HAPPY MOMENT IN MY LIFE"
316,My happiest moment is that I celebrate my best friend's birthday at last month in her house that makes me very happy.
317,I bought a new smart TV
318,"My football team played a friendly game against an opponent and we won, it was a great match."
319,I finished reading a juicy book.
320,I paid for a vacation that I'm planning on taking over the summer.
321,"I finished the videogame ""the witcher 3"", it was a very good game.
"
322,Going out to a famous disco and listen to one of the best dj's in the world.
323,In the past month my best friend came and visited me from Virginia for a week.
324,The Oregon Ducks advanced to the final four in the college basketball tournament.
325,Watching and listening to it rain and thunder.
326,I made travel plans to travel to a fun new city.
327,"I successfully turned out 4 pies, both dinner and dessert pies, in one day, for my son's birthday celebration."
328,The warm weather we have been having the past couple days.
329,My husband brought me home a coffee from my favorite coffee shop.
330,I tried the new nitrogen ice cream and it exceeded expectations.
331,playing with my dogs watching them run around at the dog park
332,I scored 45 runs in the final of cricket tournament and was awarded with Man of the Match.
333,The tulips we planted last Fall are growing and blooming.
334,When I was able to watch my favorite soccer team win their match.
335,"In the past month, I decided to move to another state. "
336,It made me very happy to go eat pizza with my girlfriend celebrating my birthday.
337,"I went to an art gallery, which I've never done before."
338,The party at the winery made me happy
339,I made a new recipe for a party and everyone loved it. 
340,I love coming home on a Friday and cuddling with my dogs on the couch and watching TV.
341,I went to a party and made quite a few new friends. 
342,I controlled myself at the store and didnt buy junk food.
343,I bought a large screen TV
344,12 Mar was my spouse birthday. Felt happy celebrating with her.
345,My country team won the test match in cricket.
346,Something that made me happy was recieving a birthday present from a friend in the mail. 
347,AFTER THE MARRIAGE WE WENT FOR AN HONEYMOON
348,My husband brought me flowers.
349,I went for a walk in the snow
350,"I rescued a stray kitten that looked malnourished, now it is healthy and playful."
351,"Getting my backyard looking nice, landscaping, mulching. "
352,Throwing my daughter's 9th birthday party and it turned out really good.
353,I dry cleaned the old drapes that was in the house for 20 years. 
354,"I felt happy when I got my favorite movie in the mail ""The Thing"", and watching it."
355,The birthday of my niece.
356,The Oregon Ducks made it to the final 4 in college basketball.
357,We received a $50 gift card in the mail.
358,"""Feeling a Moment"" is a song by Welsh rock band Feeder, from their 2005 album Pushing the Senses. It was released as the second single from the album, and reached #13 in the UK Singles Chart and #32 in Australia. At the end of 2005, it was voted 98th best song of the year by the readers of Q Magazine.[1] Upon release of the single, the album's sales increased significantly in the wake of the single's presence on Radio 1's A-list."
359,My husband and I celebrated the 37th anniversary of the day we met.
360,My birthday party
361,"I was able to see one of my most anticipated movies, Logan, starring Hugh Jackman."
362,I just booked a two weeks trip to Japan for next month.
363,I went to watch a comedy show and it was amazing.
364,We spent a nice day together at t h e park as a family
365,Watching my favorite childhood movie The Wizard of Oz on television.
366,I got to play The Legend of Zelda Breath of the Wild and it is a really great and engaging game to play.
367,Playing with my cat.
368,Celebrated my parent's anniversary with them.
369,I celebrated my mom's birthday and it was fun to be with family.
370,"Past month, My friends celebrate my birthday. I feel happy , very enjoyment. My birthday celebration continue 3days. so i am very happy for one."
371,i bought 5.1 Sony home theater for my home and after installation i felt that sound was too good and last month fully watching movie with 5.1 surround sound and i was very happy that moment.
372,I was able to go out to the movies for a movie that the whole family could see.
373,I shaved my beard down to a mustache and received lots of compliments on it.
